id,name,latitude,longitude
1,Aceh,"4.695135","96.749399"
2,Sumatera Utara,"2.010856","98.978489"
3,Sumatera Barat,"-0.739940","100.800005"
4,Riau,"0.293347","101.706829"
5,Jambi,"-1.590000","103.610000"
6,Sumatera Selatan,"-3.319437","103.914399"
7,Bengkulu,"-3.792845","102.260764"
8,Lampung,"-4.558585","105.406808"
9,Kepulauan Bangka Belitung,"-2.741051","106.440587"
10,Kepulauan Riau,"3.945651","108.142867"
11,DKI Jakarta,"-6.174465","106.822745"
12,Jawa Barat,"-7.090911","107.668887"
13,Jawa Tengah,"-7.150975","110.140259"
14,Di Yogyakarta,"-7.795580","110.369490"
15,Jawa Timur,"-7.536064","112.238402"
16,Banten,"-6.405817","106.064018"
17,Bali,"-8.409518","115.188916"
18,Nusa Tenggara Barat,"-8.652933","117.361648"
19,Nusa Tenggara Timur,"-8.657382","121.079370"
20,Kalimantan Barat,"-0.278781","111.475285"
21,Kalimantan Tengah,"-1.681488","113.382355"
22,Kalimantan Selatan,"-3.092642","115.283758"
23,Kalimantan Timur,"0.538659","116.419389"
24,Kalimantan Utara,"3.073093","116.041389"
25,Sulawesi Utara,"0.624693","123.975002"
26,Sulawesi Tengah,"-1.430025","121.445618"
27,Sulawesi Selatan,"-3.668799","119.974053"
28,Sulawesi Tenggara,"-4.144910","122.174605"
29,Gorontalo,"0.543544","123.056769"
30,Sulawesi Barat,"-2.844137","119.232078"
31,Maluku,"-3.238462","130.145273"
32,Maluku Utara,"1.570999","127.808769"
33,Papua Barat,"-1.336115","133.174716"
34,Papua,"-4.269928","138.080353"